^C:\USERS\DANYA\ONEDRIVE\MASAÜSTÜ\OOPLAB01\OOPLAB\OOPLAB\SOURCE.CPP
C:\USERS\DANYA\ONEDRIVE\MASAüSTü\OOPLAB01\OOPLAB\OOPLAB\DEBUG\VC142.PDB
C:\USERS\DANYA\ONEDRIVE\MASAüSTü\OOPLAB01\OOPLAB\OOPLAB\DEBUG\VC142.IDB
C:\USERS\DANYA\ONEDRIVE\MASAüSTü\OOPLAB01\OOPLAB\OOPLAB\DEBUG\SOURCE.OBJ
^C:\USERS\DANYA\ONEDRIVE\MASAÜSTÜ\20_21_FALL_OOP1_152120181029\SOURCE.CPP
C:\USERS\DANYA\ONEDRIVE\MASAüSTü\20_21_FALL_OOP1_152120181029\DEBUG\VC142.PDB
C:\USERS\DANYA\ONEDRIVE\MASAüSTü\20_21_FALL_OOP1_152120181029\DEBUG\VC142.IDB
C:\USERS\DANYA\ONEDRIVE\MASAüSTü\20_21_FALL_OOP1_152120181029\DEBUG\SOURCE.OBJ
